992
992
-8 16 -24 32 -40 48 -56 64 -72 -80 472
-8 408 -80 472
-8 -800 -168
-400 -320 -64 -168 -8
-80 -80 -80 -80 -80 552
-8 64 -8 56 -8 48 -8 40 -8 32 -8 24 -8 16 -8 8 -16 -8 472
880 -8 -8 -8 -8 -8 -8 -8
992
